# Units: length:mm angle:deg time:s strain:% 
# Stage: Stage 445
stage;index;relative_time;date
"Stage 445";226;193.4255;"2020-03-06T15:53:54.753"
# Name : K3-A1-middle
id;x;y;z;epsilon_x
0;-23.7001;16.4330;-0.5690;27.2703
1;-22.8642;16.7911;-0.5495;28.3161
2;-21.7011;16.7273;-0.5642;29.6075
3;-20.5102;16.6589;-0.5794;31.1823
4;-19.2943;16.5578;-0.5684;32.7783
5;-18.0284;16.4339;-0.5762;34.5018
6;-16.7052;16.2923;-0.6067;36.2028
7;-15.3504;16.1252;-0.5886;37.3226
8;-14.0336;16.0011;-0.5574;38.2453
9;-12.7611;15.9378;-0.5167;38.4593
10;-11.5064;15.9167;-0.5187;38.1954
11;-10.2435;15.9155;-0.5128;37.2405
12;-8.9807;15.9282;-0.5041;35.9551
13;-7.7077;15.9694;-0.5024;34.3724
14;-6.4336;16.0298;-0.4921;32.3447
15;-5.1668;16.0774;-0.4837;30.4524
16;-3.9320;16.1011;-0.4538;28.4294
17;-2.7274;16.1163;-0.4385;26.6688
18;-1.5467;16.1189;-0.4209;25.1049
19;-0.3812;16.1134;-0.4099;23.7146
20;0.7745;16.1049;-0.3929;22.6456
21;1.9180;16.0945;-0.3916;21.7082
22;3.0600;16.0770;-0.3866;21.0083
23;4.1885;16.0562;-0.3596;20.4228
24;5.3131;16.0434;-0.3543;19.9623
25;6.4324;16.0253;-0.3581;19.6261
26;6.9833;15.4528;-0.3423;19.4368
27;6.9559;14.5570;-0.3416;19.4080
28;6.9305;13.6619;-0.3473;19.3779
29;6.8994;12.7633;-0.3387;19.3533
30;6.8674;11.8652;-0.3339;19.3263
31;6.8359;10.9702;-0.3348;19.2925
32;6.7971;10.0725;-0.3253;19.2576
33;6.7593;9.1773;-0.3290;19.2322
34;6.7232;8.2833;-0.3253;19.2183
35;6.6865;7.3900;-0.3161;19.2164
36;6.6458;6.4955;-0.3157;19.2305
37;6.6050;5.6036;-0.3108;19.2616
38;6.5632;4.7106;-0.3032;19.3061
39;6.5205;3.8181;-0.2967;19.3515
40;6.4743;2.9269;-0.2895;19.3879
41;6.4314;2.0369;-0.2851;19.4340
42;6.3848;1.1467;-0.2768;19.4745
43;6.2888;0.2761;-0.2674;19.6075
44;5.2445;0.1448;-0.2658;19.9400
45;4.1266;0.1485;-0.2662;20.3897
46;3.0005;0.1518;-0.2600;20.9372
47;1.8734;0.1555;-0.2600;21.6628
48;0.7344;0.1640;-0.2654;22.6377
49;-0.4140;0.1745;-0.2659;23.8049
50;-1.5703;0.1914;-0.2625;25.3340
51;-2.7382;0.2091;-0.2620;27.0908
52;-3.9247;0.2267;-0.2657;29.1333
53;-5.1418;0.2740;-0.2877;31.3109
54;-6.4055;0.3432;-0.3007;33.7466
55;-7.7259;0.4512;-0.3142;35.6146
56;-9.0690;0.5695;-0.3112;37.3718
57;-10.3832;0.6333;-0.2897;38.2133
58;-11.6562;0.6555;-0.2643;38.5935
59;-12.8930;0.6470;-0.2533;38.1943
60;-14.1344;0.5943;-0.2596;37.3676
61;-15.4137;0.5071;-0.2667;35.8937
62;-16.7176;0.4016;-0.2655;34.4726
63;-17.9959;0.3102;-0.2369;32.6250
64;-19.2357;0.2331;-0.2105;30.9547
65;-20.4489;0.1559;-0.2002;29.5425
66;-21.6412;0.0959;-0.1915;28.2241
67;-22.8207;0.0446;-0.1762;27.1916
68;-23.9760;-0.0026;-0.1603;26.2688
69;-24.4537;0.5031;-0.1709;25.8427
70;-24.4281;1.3822;-0.1953;25.7231
71;-24.4032;2.2606;-0.2167;25.5985
72;-24.3747;3.1452;-0.2566;25.4557
73;-24.3451;4.0292;-0.2792;25.2996
74;-24.3125;4.9116;-0.3016;25.1103
75;-24.2782;5.7981;-0.3200;24.9304
76;-24.2430;6.6841;-0.3442;24.7983
77;-24.2047;7.5703;-0.3688;24.7386
78;-24.1631;8.4569;-0.3829;24.7524
79;-24.1194;9.3434;-0.4122;24.8398
80;-24.0759;10.2272;-0.4282;25.0108
81;-24.0331;11.1165;-0.4482;25.2683
82;-23.9821;12.0023;-0.4696;25.5873
83;-23.9321;12.8879;-0.4871;25.8960
84;-23.8801;13.7769;-0.5136;26.2061
85;-23.8240;14.6619;-0.5282;26.4969
86;-23.7628;15.5498;-0.5563;26.7637
87;-23.3620;0.5863;-0.1820;26.6186
88;-23.4471;1.2493;-0.1975;26.4733
89;-23.4431;2.0520;-0.2215;26.3574
90;-23.4307;2.9000;-0.2479;26.2308
91;-23.4160;3.7685;-0.2729;26.0944
92;-23.3977;4.6437;-0.3000;25.9308
93;-23.3796;5.5231;-0.3205;25.7542
94;-23.3580;6.4059;-0.3400;25.6102
95;-23.3339;7.2868;-0.3653;25.5365
96;-23.3067;8.1698;-0.3836;25.5443
97;-23.2793;9.0524;-0.4034;25.6355
98;-23.2474;9.9345;-0.4333;25.8140
99;-23.2186;10.8151;-0.4383;26.0826
100;-23.1833;11.7015;-0.4697;26.4221
101;-23.1460;12.5810;-0.4813;26.7635
102;-23.1107;13.4644;-0.4991;27.0746
103;-23.0673;14.3498;-0.5242;27.3740
104;-22.9958;15.2262;-0.5419;27.6606
105;-23.0571;16.0293;-0.5459;27.7971
106;-22.3579;0.8763;-0.2015;27.4682
107;-22.4322;1.7358;-0.2214;27.2999
108;-22.4430;2.5889;-0.2483;27.1821
109;-22.4419;3.4512;-0.2737;27.0677
110;-22.4411;4.3208;-0.2960;26.9438
111;-22.4359;5.1931;-0.3198;26.8031
112;-22.4255;6.0700;-0.3388;26.6728
113;-22.4150;6.9495;-0.3635;26.5955
114;-22.4017;7.8267;-0.3818;26.6003
115;-22.3857;8.7090;-0.4080;26.6886
116;-22.3677;9.5871;-0.4224;26.8596
117;-22.3481;10.4688;-0.4450;27.1156
118;-22.3261;11.3482;-0.4535;27.4411
119;-22.3009;12.2287;-0.4696;27.7754
120;-22.2760;13.1078;-0.4905;28.0750
121;-22.2510;13.9967;-0.5165;28.3454
122;-22.2222;14.9110;-0.5359;28.5979
123;-22.2171;15.9265;-0.5373;28.8245
124;-21.2768;0.7314;-0.2063;28.5524
125;-21.3944;1.4479;-0.2243;28.3996
126;-21.4306;2.2507;-0.2443;28.3070
127;-21.4458;3.0909;-0.2704;28.2301
128;-21.4512;3.9482;-0.2920;28.1535
129;-21.4547;4.8136;-0.3120;28.0778
130;-21.4550;5.6862;-0.3393;27.9953
131;-21.4531;6.5596;-0.3573;27.9428
132;-21.4495;7.4358;-0.3804;27.9515
133;-21.4415;8.3128;-0.3971;28.0322
134;-21.4328;9.1894;-0.4178;28.1860
135;-21.4237;10.0674;-0.4281;28.4048
136;-21.4100;10.9460;-0.4483;28.6907
137;-21.3929;11.8250;-0.4702;28.9872
138;-21.3751;12.7029;-0.4943;29.2492
139;-21.3575;13.5773;-0.5078;29.4851
140;-21.3454;14.4507;-0.5324;29.6847
141;-21.3471;15.3105;-0.5363;29.8347
142;-21.2221;16.0689;-0.5476;30.0944
143;-20.3192;1.0432;-0.2297;29.6721
144;-20.3850;1.8726;-0.2488;29.5930
145;-20.4146;2.7049;-0.2691;29.5621
146;-20.4319;3.5533;-0.2872;29.5388
147;-20.4451;4.4115;-0.3099;29.5249
148;-20.4558;5.2756;-0.3362;29.5206
149;-20.4608;6.1475;-0.3613;29.5202
150;-20.4649;7.0160;-0.3699;29.5581
151;-20.4660;7.8919;-0.3952;29.6416
152;-20.4617;8.7670;-0.4103;29.7743
153;-20.4579;9.6426;-0.4273;29.9510
154;-20.4474;10.5162;-0.4486;30.1768
155;-20.4354;11.3924;-0.4683;30.4198
156;-20.4266;12.2663;-0.4822;30.6305
157;-20.4104;13.1393;-0.4926;30.8276
158;-20.3953;14.0076;-0.5193;30.9960
159;-20.3826;14.8670;-0.5256;31.1323
160;-20.3284;15.7248;-0.5539;31.3069
161;-19.2831;0.7660;-0.2296;30.9893
162;-19.3295;1.5321;-0.2561;30.9940
163;-19.3625;2.3335;-0.2719;31.0273
164;-19.3843;3.1625;-0.2909;31.0631
165;-19.4088;4.0098;-0.3101;31.1089
166;-19.4300;4.8674;-0.3216;31.1659
167;-19.4443;5.7285;-0.3484;31.2391
168;-19.4511;6.5945;-0.3653;31.3286
169;-19.4582;7.4619;-0.3834;31.4384
170;-19.4623;8.3349;-0.4102;31.5699
171;-19.4635;9.2061;-0.4280;31.7171
172;-19.4577;10.0770;-0.4382;31.8875
173;-19.4487;10.9489;-0.4577;32.0662
174;-19.4388;11.8195;-0.4717;32.2211
175;-19.4232;12.6868;-0.4867;32.3644
176;-19.4051;13.5518;-0.5137;32.4959
177;-19.3881;14.3989;-0.5326;32.5996
178;-19.3692;15.2194;-0.5431;32.6786
179;-19.3326;16.0131;-0.5624;32.7563
180;-18.2674;1.1456;-0.2586;32.4425
181;-18.2865;1.9579;-0.2787;32.5649
182;-18.3145;2.7778;-0.2962;32.6657
183;-18.3438;3.6132;-0.3089;32.7713
184;-18.3741;4.4604;-0.3297;32.8879
185;-18.4005;5.3153;-0.3487;33.0202
186;-18.4142;6.1755;-0.3675;33.1754
187;-18.4308;7.0394;-0.3796;33.3315
188;-18.4373;7.9043;-0.4025;33.4819
189;-18.4412;8.7681;-0.4108;33.6326
190;-18.4406;9.6361;-0.4330;33.7675
191;-18.4349;10.5059;-0.4542;33.8889
192;-18.4204;11.3695;-0.4747;33.9825
193;-18.4029;12.2311;-0.4803;34.0657
194;-18.3836;13.0926;-0.5095;34.1394
195;-18.3527;13.9410;-0.5297;34.1976
196;-18.3274;14.7689;-0.5477;34.2359
197;-18.3363;15.5876;-0.5742;34.1959
198;-17.2074;0.9501;-0.2737;33.8757
199;-17.1796;1.6434;-0.2849;34.1105
200;-17.2196;2.4186;-0.3043;34.2699
201;-17.2570;3.2343;-0.3178;34.4347
202;-17.2949;4.0687;-0.3332;34.6128
203;-17.3252;4.9148;-0.3502;34.8022
204;-17.3515;5.7679;-0.3688;35.0185
205;-17.3713;6.6214;-0.3862;35.2390
206;-17.3844;7.4806;-0.4068;35.4394
207;-17.3943;8.3377;-0.4190;35.6013
208;-17.3959;9.1999;-0.4445;35.7295
209;-17.3893;10.0583;-0.4566;35.8134
210;-17.3749;10.9187;-0.4770;35.8474
211;-17.3547;11.7750;-0.4930;35.8558
212;-17.3285;12.6251;-0.5076;35.8557
213;-17.2919;13.4681;-0.5305;35.8507
214;-17.2468;14.2868;-0.5413;35.8269
215;-17.2175;15.0738;-0.5718;35.7658
216;-17.3316;15.7963;-0.5906;35.5236
217;-16.0553;1.2292;-0.2899;35.4919
218;-16.0871;2.0504;-0.3129;35.7462
219;-16.1404;2.8708;-0.3299;35.9814
220;-16.1925;3.6932;-0.3408;36.2286
221;-16.2275;4.5264;-0.3552;36.4900
222;-16.2601;5.3693;-0.3719;36.7689
223;-16.2918;6.2171;-0.3897;37.0503
224;-16.3064;7.0661;-0.4066;37.3112
225;-16.3152;7.9169;-0.4238;37.5159
226;-16.3164;8.7657;-0.4417;37.6521
227;-16.3105;9.6158;-0.4542;37.7170
228;-16.2996;10.4639;-0.4733;37.6963
229;-16.2707;11.3113;-0.4965;37.6317
230;-16.2348;12.1530;-0.5238;37.5327
231;-16.1900;12.9858;-0.5477;37.4332
232;-16.1378;13.8071;-0.5633;37.3237
233;-16.0879;14.6222;-0.5783;37.1867
234;-16.0751;15.4562;-0.5849;36.9893
235;-14.8918;1.1049;-0.2879;36.7954
236;-14.9392;1.7797;-0.3103;37.0311
237;-14.9945;2.5529;-0.3378;37.3207
238;-15.0443;3.3516;-0.3599;37.6420
239;-15.0918;4.1660;-0.3679;37.9765
240;-15.1338;4.9875;-0.3833;38.3293
241;-15.1662;5.8258;-0.4052;38.6786
242;-15.1870;6.6605;-0.4228;38.9965
243;-15.1997;7.4988;-0.4367;39.2464
244;-15.1987;8.3397;-0.4539;39.4134
245;-15.1959;9.1756;-0.4713;39.4697
246;-15.1761;10.0097;-0.4953;39.4220
247;-15.1399;10.8407;-0.5196;39.2844
248;-15.1024;11.6682;-0.5353;39.0866
249;-15.0537;12.4883;-0.5549;38.8716
250;-14.9928;13.2985;-0.5763;38.6444
251;-14.9330;14.0885;-0.5857;38.4113
252;-14.8884;14.8479;-0.5759;38.1761
253;-14.8404;15.5099;-0.5762;37.9836
254;-13.7565;1.3988;-0.2939;37.9871
255;-13.8424;2.2102;-0.3192;38.3086
256;-13.8800;3.0087;-0.3527;38.6849
257;-13.9178;3.8152;-0.3770;39.0878
258;-13.9570;4.6297;-0.4005;39.4989
259;-13.9924;5.4453;-0.4217;39.9134
260;-14.0168;6.2674;-0.4478;40.2881
261;-14.0253;7.0953;-0.4642;40.5894
262;-14.0270;7.9116;-0.4886;40.7884
263;-14.0202;8.7314;-0.5000;40.8577
264;-13.9913;9.5507;-0.5208;40.7914
265;-13.9574;10.3632;-0.5423;40.6011
266;-13.9119;11.1762;-0.5603;40.3198
267;-13.8592;11.9891;-0.5663;39.9952
268;-13.8121;12.7975;-0.5744;39.6503
269;-13.7692;13.6007;-0.5692;39.3006
270;-13.7348;14.3956;-0.5652;38.9655
271;-13.6519;15.1992;-0.5545;38.6556
272;-12.5883;1.2410;-0.2735;38.6333
273;-12.7183;1.9219;-0.3098;38.8806
274;-12.7289;2.6735;-0.3405;39.2370
275;-12.7442;3.4590;-0.3687;39.6474
276;-12.7575;4.2622;-0.4085;40.0842
277;-12.7738;5.0700;-0.4390;40.5260
278;-12.7809;5.8756;-0.4698;40.9387
279;-12.7740;6.6794;-0.4931;41.2779
280;-12.7687;7.4830;-0.5198;41.5115
281;-12.7535;8.2823;-0.5365;41.6047
282;-12.7328;9.0854;-0.5472;41.5369
283;-12.6996;9.8911;-0.5528;41.3204
284;-12.6760;10.6929;-0.5612;40.9928
285;-12.6386;11.5073;-0.5565;40.5962
286;-12.6146;12.3220;-0.5333;40.1711
287;-12.5965;13.1329;-0.5338;39.7445
288;-12.5895;13.9277;-0.5433;39.3443
289;-12.5899;14.6757;-0.5335;39.0078
290;-12.4627;15.3435;-0.5219;38.7191
291;-11.6203;1.5081;-0.2994;38.9459
292;-11.5933;2.2752;-0.3303;39.2640
293;-11.5746;3.0513;-0.3680;39.6343
294;-11.5553;3.8492;-0.4015;40.0378
295;-11.5321;4.6534;-0.4368;40.4507
296;-11.5155;5.4515;-0.4629;40.8497
297;-11.4922;6.2510;-0.4971;41.1920
298;-11.4706;7.0453;-0.5094;41.4361
299;-11.4441;7.8445;-0.5272;41.5489
300;-11.4300;8.6421;-0.5322;41.5045
301;-11.4211;9.4454;-0.5359;41.3034
302;-11.4170;10.2548;-0.5355;40.9758
303;-11.4175;11.0696;-0.5284;40.5746
304;-11.4215;11.8914;-0.5312;40.1249
305;-11.4270;12.7185;-0.5291;39.6674
306;-11.4387;13.5328;-0.5250;39.2334
307;-11.4609;14.3154;-0.5222;38.8534
308;-11.4878;15.0702;-0.5163;38.5441
309;-10.6536;1.2194;-0.3098;38.6455
310;-10.4765;1.8762;-0.3344;38.8268
311;-10.4212;2.6108;-0.3613;39.0907
312;-10.3786;3.3836;-0.3950;39.4017
313;-10.3291;4.1754;-0.4167;39.7251
314;-10.2761;4.9778;-0.4396;40.0443
315;-10.2329;5.7821;-0.4564;40.3374
316;-10.1986;6.5878;-0.4673;40.5634
317;-10.1720;7.4011;-0.4790;40.6793
318;-10.1633;8.2163;-0.4862;40.6656
319;-10.1629;9.0337;-0.4876;40.5103
320;-10.1774;9.8575;-0.5019;40.2302
321;-10.2006;10.6828;-0.5135;39.8734
322;-10.2299;11.5099;-0.5146;39.4706
323;-10.2633;12.3372;-0.5111;39.0483
324;-10.2867;13.1562;-0.5106;38.6296
325;-10.3038;13.9510;-0.5180;38.2428
326;-10.3659;14.6814;-0.5207;37.9606
327;-10.5517;15.3373;-0.5190;37.8204
328;-9.4172;1.3344;-0.3331;37.9055
329;-9.2787;2.1069;-0.3610;38.0527
330;-9.2108;2.8830;-0.3805;38.2484
331;-9.1520;3.6752;-0.3978;38.4568
332;-9.0977;4.4837;-0.4019;38.6649
333;-9.0469;5.3029;-0.4166;38.8617
334;-9.0154;6.1256;-0.4187;39.0338
335;-8.9945;6.9608;-0.4314;39.1380
336;-8.9801;7.7950;-0.4337;39.1394
337;-8.9880;8.6315;-0.4492;39.0341
338;-8.9995;9.4710;-0.4623;38.8291
339;-9.0219;10.3074;-0.4784;38.5522
340;-9.0520;11.1410;-0.4839;38.2230
341;-9.0896;11.9761;-0.5006;37.8743
342;-9.1294;12.8051;-0.5062;37.5261
343;-9.1542;13.6289;-0.5160;37.1707
344;-9.1849;14.4362;-0.5104;36.8517
345;-9.4013;15.2163;-0.5133;36.7546
346;-8.2204;1.0306;-0.3288;36.5559
347;-8.1457;1.6616;-0.3478;36.6271
348;-8.0663;2.4001;-0.3597;36.6909
349;-8.0128;3.1837;-0.3614;36.7800
350;-7.9674;4.0002;-0.3681;36.8815
351;-7.9288;4.8282;-0.3732;36.9737
352;-7.9018;5.6702;-0.3839;37.0687
353;-7.8819;6.5157;-0.3951;37.1374
354;-7.8703;7.3650;-0.4015;37.1396
355;-7.8698;8.2155;-0.4175;37.0612
356;-7.8778;9.0668;-0.4306;36.9268
357;-7.8936;9.9152;-0.4442;36.7275
358;-7.9127;10.7620;-0.4570;36.4831
359;-7.9428;11.6053;-0.4675;36.2294
360;-7.9847;12.4491;-0.4748;35.9771
361;-8.0206;13.2931;-0.4996;35.7160
362;-8.0636;14.1515;-0.5086;35.4637
363;-8.1805;15.0585;-0.5080;35.2962
364;-7.0193;1.1176;-0.3216;34.8222
365;-6.9592;1.9024;-0.3259;34.8293
366;-6.9145;2.7080;-0.3345;34.8377
367;-6.8799;3.5309;-0.3450;34.8530
368;-6.8495;4.3690;-0.3511;34.8645
369;-6.8276;5.2192;-0.3697;34.8810
370;-6.8115;6.0750;-0.3809;34.8971
371;-6.8019;6.9276;-0.3827;34.8773
372;-6.7973;7.7844;-0.3947;34.8139
373;-6.7962;8.6447;-0.4014;34.7119
374;-6.8040;9.5047;-0.4238;34.5785
375;-6.8173;10.3604;-0.4290;34.4157
376;-6.8382;11.2174;-0.4433;34.2374
377;-6.8664;12.0699;-0.4569;34.0755
378;-6.8981;12.9211;-0.4753;33.9144
379;-6.9416;13.7713;-0.4798;33.7673
380;-6.9960;14.6157;-0.4911;33.6392
381;-7.0387;15.3758;-0.4959;33.5017
382;-5.8904;0.8448;-0.3022;32.7804
383;-5.8619;1.4966;-0.3035;32.7678
384;-5.8376;2.2582;-0.3163;32.7423
385;-5.8164;3.0744;-0.3242;32.7177
386;-5.7953;3.9131;-0.3350;32.6768
387;-5.7785;4.7664;-0.3487;32.6331
388;-5.7657;5.6254;-0.3558;32.5877
389;-5.7558;6.4866;-0.3610;32.5380
390;-5.7465;7.3522;-0.3752;32.4628
391;-5.7440;8.2129;-0.3797;32.3755
392;-5.7469;9.0797;-0.3972;32.2798
393;-5.7577;9.9444;-0.4078;32.1844
394;-5.7655;10.8089;-0.4221;32.0703
395;-5.7857;11.6706;-0.4348;31.9797
396;-5.8096;12.5338;-0.4463;31.9113
397;-5.8455;13.3979;-0.4608;31.8519
398;-5.8874;14.2733;-0.4708;31.7993
399;-5.8865;15.1783;-0.4799;31.6817
400;-4.7689;0.9734;-0.2855;30.6753
401;-4.7678;1.7711;-0.2980;30.6442
402;-4.7728;2.6053;-0.3045;30.6122
403;-4.7609;3.4580;-0.3172;30.5339
404;-4.7485;4.3152;-0.3238;30.4506
405;-4.7366;5.1774;-0.3398;30.3602
406;-4.7271;6.0419;-0.3437;30.2634
407;-4.7152;6.9096;-0.3659;30.1561
408;-4.7145;7.7792;-0.3789;30.0672
409;-4.7127;8.6478;-0.3778;29.9937
410;-4.7171;9.5168;-0.3898;29.9388
411;-4.7226;10.3875;-0.4054;29.8941
412;-4.7317;11.2564;-0.4177;29.8514
413;-4.7509;12.1251;-0.4214;29.8457
414;-4.7770;12.9921;-0.4359;29.8593
415;-4.8082;13.8475;-0.4472;29.8845
416;-4.8289;14.6759;-0.4565;29.8889
417;-4.7417;15.4316;-0.4664;29.7439
418;-3.7554;1.2092;-0.2858;28.7557
419;-3.7534;2.1153;-0.3000;28.6796
420;-3.7473;2.9891;-0.3050;28.5693
421;-3.7326;3.8589;-0.3178;28.4399
422;-3.7209;4.7280;-0.3268;28.3080
423;-3.7099;5.5966;-0.3354;28.1691
424;-3.7010;6.4665;-0.3507;28.0281
425;-3.6934;7.3383;-0.3657;27.9138
426;-3.6945;8.2095;-0.3632;27.8410
427;-3.6936;9.0843;-0.3764;27.8110
428;-3.6989;9.9589;-0.3961;27.8104
429;-3.7043;10.8337;-0.4042;27.8325
430;-3.7140;11.7087;-0.4146;27.8734
431;-3.7310;12.5809;-0.4176;27.9365
432;-3.7523;13.4460;-0.4258;28.0184
433;-3.7747;14.3051;-0.4424;28.1066
434;-3.7590;15.1707;-0.4449;28.1298
435;-2.7561;0.8117;-0.2756;27.0514
436;-2.7585;1.6672;-0.2880;26.9621
437;-2.7420;2.5372;-0.2983;26.8207
438;-2.7257;3.4050;-0.3005;26.6704
439;-2.7146;4.2739;-0.3172;26.5077
440;-2.7043;5.1481;-0.3236;26.3373
441;-2.6952;6.0206;-0.3356;26.1637
442;-2.6885;6.8936;-0.3442;26.0240
443;-2.6847;7.7709;-0.3582;25.9378
444;-2.6830;8.6481;-0.3658;25.9064
445;-2.6848;9.5237;-0.3716;25.9261
446;-2.6888;10.4028;-0.3884;25.9893
447;-2.6968;11.2811;-0.3978;26.0790
448;-2.7069;12.1587;-0.4076;26.1874
449;-2.7198;13.0283;-0.4229;26.3096
450;-2.7387;13.8869;-0.4208;26.4341
451;-2.7580;14.7253;-0.4311;26.5587
452;-2.7513;15.5391;-0.4235;26.6404
453;-1.7819;1.1727;-0.2770;25.4854
454;-1.7449;2.0693;-0.2901;25.3124
455;-1.7304;2.9474;-0.3042;25.1523
456;-1.7165;3.8221;-0.3143;24.9837
457;-1.7031;4.6978;-0.3238;24.7996
458;-1.6964;5.5718;-0.3230;24.6144
459;-1.6892;6.4496;-0.3334;24.4580
460;-1.6843;7.3289;-0.3446;24.3547
461;-1.6837;8.2080;-0.3539;24.3141
462;-1.6819;9.0887;-0.3683;24.3309
463;-1.6859;9.9665;-0.3674;24.4063
464;-1.6895;10.8471;-0.3840;24.5219
465;-1.6957;11.7269;-0.3904;24.6530
466;-1.7037;12.6033;-0.3924;24.7926
467;-1.7150;13.4749;-0.4105;24.9372
468;-1.7355;14.3326;-0.4127;25.0843
469;-1.7855;15.1875;-0.4161;25.2625
470;-0.8424;0.8512;-0.2722;24.2255
471;-0.7537;1.6404;-0.2834;24.0265
472;-0.7378;2.4987;-0.2953;23.8840
473;-0.7269;3.3722;-0.3049;23.7342
474;-0.7172;4.2474;-0.3108;23.5707
475;-0.7061;5.1260;-0.3158;23.3938
476;-0.6969;6.0054;-0.3339;23.2389
477;-0.6913;6.8850;-0.3391;23.1315
478;-0.6853;7.7694;-0.3526;23.0758
479;-0.6847;8.6499;-0.3634;23.0797
480;-0.6876;9.5320;-0.3672;23.1390
481;-0.6902;10.4118;-0.3725;23.2434
482;-0.6969;11.2921;-0.3748;23.3776
483;-0.7033;12.1742;-0.3792;23.5165
484;-0.7083;13.0496;-0.3898;23.6546
485;-0.7166;13.9123;-0.3979;23.7937
486;-0.7393;14.7435;-0.4016;23.9372
487;-0.8847;15.5001;-0.4126;24.1798
488;0.2107;1.0723;-0.2781;22.9978
489;0.2378;2.0135;-0.2853;22.8628
490;0.2595;2.9092;-0.2943;22.7280
491;0.2707;3.7957;-0.3039;22.5960
492;0.2798;4.6761;-0.3129;22.4497
493;0.2882;5.5582;-0.3203;22.3160
494;0.2953;6.4423;-0.3359;22.2130
495;0.2994;7.3231;-0.3405;22.1512
496;0.3007;8.2095;-0.3585;22.1382
497;0.3019;9.0904;-0.3529;22.1687
498;0.3005;9.9719;-0.3544;22.2428
499;0.2965;10.8569;-0.3617;22.3513
500;0.2925;11.7417;-0.3718;22.4796
501;0.2865;12.6252;-0.3891;22.6051
502;0.2774;13.5016;-0.3842;22.7290
503;0.2663;14.3820;-0.4051;22.8576
504;0.2120;15.2813;-0.4041;23.0112
505;1.2561;0.8162;-0.2684;22.0563
506;1.2025;1.6102;-0.2846;22.0191
507;1.2257;2.4709;-0.2932;21.9172
508;1.2466;3.3457;-0.2928;21.8108
509;1.2585;4.2285;-0.3074;21.7048
510;1.2652;5.1102;-0.3133;21.5976
511;1.2714;5.9933;-0.3229;21.5056
512;1.2781;6.8789;-0.3420;21.4433
513;1.2825;7.7639;-0.3395;21.4153
514;1.2841;8.6480;-0.3454;21.4221
515;1.2851;9.5334;-0.3577;21.4628
516;1.2857;10.4199;-0.3632;21.5362
517;1.2802;11.3059;-0.3606;21.6398
518;1.2757;12.1920;-0.3682;21.7512
519;1.2665;13.0673;-0.3775;21.8565
520;1.2562;13.9308;-0.3894;21.9628
521;1.2420;14.7616;-0.3869;22.0610
522;1.2467;15.4870;-0.3929;22.1343
523;2.1723;1.1166;-0.2763;21.3435
524;2.1887;2.0100;-0.2858;21.2704
525;2.2073;2.8921;-0.2890;21.1915
526;2.2203;3.7752;-0.2985;21.1087
527;2.2308;4.6604;-0.3089;21.0257
528;2.2366;5.5444;-0.3071;20.9464
529;2.2437;6.4313;-0.3233;20.8852
530;2.2527;7.3174;-0.3336;20.8477
531;2.2550;8.2036;-0.3412;20.8383
532;2.2571;9.0932;-0.3496;20.8567
533;2.2575;9.9790;-0.3530;20.9021
534;2.2580;10.8675;-0.3513;20.9723
535;2.2558;11.7554;-0.3597;21.0623
536;2.2518;12.6418;-0.3709;21.1494
537;2.2412;13.5142;-0.3776;21.2394
538;2.2269;14.3772;-0.3779;21.3232
539;2.2713;15.2507;-0.3909;21.3739
540;3.0537;0.7359;-0.2683;20.8814
541;3.1186;1.5793;-0.2830;20.7499
542;3.1467;2.4465;-0.2818;20.6875
543;3.1613;3.3245;-0.2961;20.6253
544;3.1754;4.2089;-0.3084;20.5598
545;3.1852;5.0970;-0.3140;20.4940
546;3.1971;5.9837;-0.3263;20.4347
547;3.2038;6.8702;-0.3300;20.3933
548;3.2080;7.7585;-0.3340;20.3735
549;3.2142;8.6458;-0.3362;20.3756
550;3.2186;9.5366;-0.3454;20.4015
551;3.2218;10.4260;-0.3576;20.4497
552;3.2202;11.3143;-0.3519;20.5178
553;3.2218;12.1997;-0.3561;20.5897
554;3.2187;13.0780;-0.3675;20.6600
555;3.2135;13.9292;-0.3744;20.7266
556;3.2021;14.7247;-0.3667;20.7862
557;3.3206;15.4424;-0.3746;20.7822
558;3.9728;1.0985;-0.2789;20.3935
559;4.0378;1.9858;-0.2825;20.2888
560;4.0640;2.8652;-0.2906;20.2361
561;4.0825;3.7489;-0.2985;20.1835
562;4.0961;4.6349;-0.3039;20.1269
563;4.1094;5.5236;-0.3191;20.0736
564;4.1241;6.4119;-0.3235;20.0289
565;4.1326;7.3026;-0.3307;20.0016
566;4.1434;8.1925;-0.3315;19.9932
567;4.1523;9.0820;-0.3341;20.0038
568;4.1597;9.9737;-0.3442;20.0354
569;4.1648;10.8631;-0.3489;20.0862
570;4.1693;11.7522;-0.3497;20.1435
571;4.1724;12.6373;-0.3610;20.2007
572;4.1786;13.5055;-0.3676;20.2506
573;4.1801;14.3424;-0.3704;20.2967
574;4.1798;15.1494;-0.3678;20.3389
575;4.7614;0.7460;-0.2785;20.0640
576;4.8632;1.5296;-0.2838;19.9949
577;4.9078;2.3811;-0.2851;19.9243
578;4.9326;3.2553;-0.2997;19.8793
579;4.9527;4.1414;-0.3056;19.8310
580;4.9732;5.0280;-0.3101;19.7811
581;4.9940;5.9190;-0.3187;19.7344
582;5.0116;6.8083;-0.3146;19.7005
583;5.0322;7.7004;-0.3261;19.6848
584;5.0468;8.5925;-0.3375;19.6861
585;5.0608;9.4837;-0.3315;19.7038
586;5.0746;10.3762;-0.3445;19.7402
587;5.0873;11.2695;-0.3413;19.7859
588;5.1002;12.1576;-0.3466;19.8318
589;5.1153;13.0369;-0.3532;19.8737
590;5.1331;13.8897;-0.3514;19.9078
591;5.1404;14.6943;-0.3525;19.9390
592;5.0238;15.4185;-0.3451;20.0249
593;5.6128;0.9403;-0.2735;19.7406
594;5.6768;1.8061;-0.2842;19.6871
595;5.7120;2.6838;-0.2900;19.6269
596;5.7439;3.5688;-0.2994;19.5875
597;5.7756;4.4576;-0.3064;19.5455
598;5.8033;5.3499;-0.3140;19.4989
599;5.8337;6.2414;-0.3132;19.4587
600;5.8614;7.1342;-0.3242;19.4354
601;5.8903;8.0278;-0.3254;19.4289
602;5.9141;8.9213;-0.3269;19.4378
603;5.9402;9.8164;-0.3357;19.4604
604;5.9641;10.7113;-0.3372;19.4961
605;5.9873;11.6035;-0.3359;19.5359
606;6.0105;12.4942;-0.3429;19.5693
607;6.0384;13.3797;-0.3493;19.5968
608;6.0686;14.2633;-0.3450;19.6213
609;6.0268;15.1815;-0.3461;19.6818
